<sdf version='1.6'>
  <world name='default'>
    <light name='sun' type='directional'>
      <cast_shadows>1</cast_shadows>
      <pose frame=''>0 0 10 0 -0 0</pose>
      <diffuse>0.8 0.8 0.8 1</diffuse>
      <specular>0.2 0.2 0.2 1</specular>
      <attenuation>
        <range>1000</range>
        <constant>0.9</constant>
        <linear>0.01</linear>
        <quadratic>0.001</quadratic>
      </attenuation>
      <direction>-0.5 0.1 -0.9</direction>
    </light>

    <scene>
      <ambient>0.4 0.4 0.4 1</ambient>
      <background>0.7 0.7 0.7 1</background>
      <shadows>1</shadows>
<sky>
<clouds>
<speed> 12 </speed>
</clouds>
</sky>	

    <fog>
	<color> 0.9 0.9 0.9 1</color>
	<type> linear</type>
	<start> 1 </start>
	<end> 100 </end> 
	<density> 60 </density> 
    </fog>	
    </scene>


    <model name='ground_plane'>
      <static>1</static>
      <link name='link'>
        <collision name='collision'>
          <geometry>
            <plane>
              <normal>0 0 1</normal>
              <size>100 100</size>
            </plane>
          </geometry>
          <surface>
            <contact>
              <collide_bitmask>65535</collide_bitmask>
              <ode/>
            </contact>
            <friction>
              <ode>
                <mu>100</mu>
                <mu2>50</mu2>
              </ode>
              <torsional>
                <ode/>
              </torsional>
            </friction>
            <bounce/>
          </surface>
          <max_contacts>10</max_contacts>
        </collision>
        <visual name='visual'>
          <cast_shadows>0</cast_shadows>
          <geometry>
            <plane>
              <normal>0 0 1</normal>
              <size>100 100</size>
            </plane>
          </geometry>
          <material>
            <script>
              <uri>file://media/materials/scripts/gazebo.material</uri>
              <name>Gazebo/Grey</name>
            </script>
          </material>
        </visual>
        <self_collide>0</self_collide>
        <enable_wind>0</enable_wind>
        <kinematic>0</kinematic>
      </link>
    </model>
    <gravity>0 0 -9.8</gravity>
    <magnetic_field>6e-06 2.3e-05 -4.2e-05</magnetic_field>
    <atmosphere type='adiabatic'/>
    <physics name='default_physics' default='0' type='ode'>
      <max_step_size>0.001</max_step_size>
      <real_time_factor>1</real_time_factor>
      <real_time_update_rate>1000</real_time_update_rate>
    </physics>
    <scene>
      <ambient>0.4 0.4 0.4 1</ambient>
      <background>0.7 0.7 0.7 1</background>
      <shadows>1</shadows>
    </scene>
    <wind/>
    <spherical_coordinates>
      <surface_model>EARTH_WGS84</surface_model>
      <latitude_deg>0</latitude_deg>
      <longitude_deg>0</longitude_deg>
      <elevation>0</elevation>
      <heading_deg>0</heading_deg>
    </spherical_coordinates>
    <model name='new_terrain'>
      <static>1</static>
      <link name='link'>
        <collision name='collision'>
          <geometry>
            <heightmap>
              <uri>model://new_terrain/materials/textures/heightmap3.png</uri>
              <size>30 30 0.7</size>
	      <sampling>1</sampling>
              <pos>0 0 0</pos>
              <texture>
                <size>10</size>
                <diffuse>__default__</diffuse>
                <normal>__default__</normal>
              </texture>
              <blend>
                <min_height>0</min_height>
                <fade_dist>0</fade_dist>
              </blend>
            </heightmap>
          </geometry>
          <max_contacts>10</max_contacts>
          <surface>
            <contact>
              <ode/>
            </contact>
            <bounce/>
            <friction>
              <torsional>
                <ode/>
              </torsional>
              <ode/>
            </friction>
          </surface>
        </collision>
        <visual name='visual_abcedf'>
          <geometry>
            <heightmap>
              <use_terrain_paging>0</use_terrain_paging>
              <texture>
                <diffuse>file://media/materials/textures/dirt_diffusespecular.png</diffuse>
                <normal>file://media/materials/textures/flat_normal.png</normal>
                <size>1</size>
              </texture>
              <texture>
                <diffuse>file://media/materials/textures/grass_diffusespecular.png</diffuse>
                <normal>file://media/materials/textures/flat_normal.png</normal>
                <size>1</size>
              </texture>
              <texture>
                <diffuse>file://media/materials/textures/fungus_diffusespecular.png</diffuse>
                <normal>file://media/materials/textures/flat_normal.png</normal>
                <size>1</size>
              </texture>
              <blend>
                <min_height>2</min_height>
                <fade_dist>5</fade_dist>
              </blend>
              <blend>
                <min_height>4</min_height>
                <fade_dist>5</fade_dist>
              </blend>
              <uri>model://new_terrain/materials/textures/heightmap3.png</uri>
              <size>30 30 0.7</size>
              <pos>0 0 0</pos>
            </heightmap>
          </geometry>
        </visual>
        <self_collide>0</self_collide>
        <enable_wind>0</enable_wind>
        <kinematic>0</kinematic>
      </link>
      <pose frame=''>-0.013653 0.071648 0 0 -0 0</pose>
    </model>




<model name="human_2_collision_model">
  <pose>0 0 -100 0 0 0</pose>
  <static>true</static>
  <link name="link">
    <collision name="link">
      <pose>0 -0.18 0.05 0 -1.5707963267948966 0</pose>
      <geometry>
        <box>
          <size>0.44 1.62 0.60</size>
        </box>
      </geometry>
    </collision>
  </link>
</model>
<actor name="human_2">

  <!-- Starting pose, nice for when the world is reset -->
  <pose>
    28.16
    -6.51
    1.0
    1.570796
    -0.0
    3.141593
  </pose>

  <skin>
    <filename>model://actor/meshes/SKIN_man_green_shirt.dae</filename>
  </skin>

  <animation name="animation">
    <filename>model://actor/meshes/ANIMATION_walking.dae</filename>
    <interpolate_x>true</interpolate_x>
  </animation>

  <plugin name="trajectory" filename="libTrajectoryActorPlugin.so">

       <target>
         5.01668
        -6.63
         1.0
        1.570796
        -0.0
        3.141593
      </target>
    
      <target>
        -2.90
        3.67
        1.0
        1.570796
        -0.0
        3.141593
      </target>

        <target>
         5.01668
        -6.63
         1.0
        1.570796
        -0.0
        3.141593
      </target>

     <target>
        28.16
        -6.51
        1.0
        1.570796
        -0.0
        3.141593
      </target>

      
    
      
    

    <velocity>1.1671637840602365</velocity>
    <obstacle_margin>3</obstacle_margin>
    <obstacle>whyvr</obstacle>

  </plugin>

  <!-- Enable collisions -->
  
    <plugin name="attach_model" filename="libAttachModelPlugin.so">
      <link>
        <link_name>human_2_pose</link_name>
        <model>
          <model_name>human_2_collision_model</model_name>
        </model>
      </link>
    </plugin>
   </actor>







    <model name='yeti_with_plow'>
      <static>0</static>
      <static>0</static>
      <link name='yeti_body::chassis'>
        <inertial>
          <mass>136</mass>
          <pose frame=''>0 0 0 0 -0 0</pose>
          <inertia>
            <ixx>1</ixx>
            <ixy>0</ixy>
            <ixz>0</ixz>
            <iyy>1</iyy>
            <iyz>0</iyz>
            <izz>1</izz>
          </inertia>
        </inertial>
        <pose frame=''>0 0 0.395 0 -0 0</pose>
        <collision name='collision'>
          <geometry>
            <box>
              <size>0.93 0.495 0.625</size>
            </box>
          </geometry>
          <max_contacts>10</max_contacts>
          <surface>
            <contact>
              <ode/>
            </contact>
            <bounce/>
            <friction>
              <torsional>
                <ode/>
              </torsional>
              <ode/>
            </friction>
          </surface>
        </collision>
        <visual name='visual'>
          <pose frame=''>0.52 -0.247 -0.32 0 -0 0</pose>
          <geometry>
            <mesh>
              <uri>model://yeti/meshes/chassis.dae</uri>
            </mesh>
          </geometry>
        </visual>
        <self_collide>0</self_collide>
        <enable_wind>0</enable_wind>
        <kinematic>0</kinematic>
      </link>
      <link name='yeti_body::left_front_wheel'>
        <pose frame=''>0.233 0.315 0.165 -0 1.5707 1.5707</pose>
        <collision name='collision'>
          <geometry>
            <cylinder>
              <radius>0.165</radius>
              <length>0.13</length>
            </cylinder>
          </geometry>
          <surface>
            <friction>
              <ode>
                <mu>0.9</mu>
                <mu2>0.9</mu2>
              </ode>
              <torsional>
                <ode/>
              </torsional>
            </friction>
            <contact>
              <ode/>
            </contact>
            <bounce/>
          </surface>
          <max_contacts>10</max_contacts>
        </collision>
        <visual name='visual'>
          <geometry>
            <cylinder>
              <radius>0.165</radius>
              <length>0.13</length>
            </cylinder>
          </geometry>
          <material>
            <ambient>0 0 0 1</ambient>
            <diffuse>0 0 0 1</diffuse>
            <specular>0 0 0 1</specular>
            <emissive>0 0 0 1</emissive>
          </material>
        </visual>
        <self_collide>0</self_collide>
        <inertial>
          <pose frame=''>0 0 0 0 -0 0</pose>
          <inertia>
            <ixx>1</ixx>
            <ixy>0</ixy>
            <ixz>0</ixz>
            <iyy>1</iyy>
            <iyz>0</iyz>
            <izz>1</izz>
          </inertia>
          <mass>1</mass>
        </inertial>
        <enable_wind>0</enable_wind>
        <kinematic>0</kinematic>
      </link>
      <link name='yeti_body::right_front_wheel'>
        <pose frame=''>0.233 -0.315 0.165 -0 1.5707 1.5707</pose>
        <collision name='collision'>
          <geometry>
            <cylinder>
              <radius>0.165</radius>
              <length>0.13</length>
            </cylinder>
          </geometry>
          <surface>
            <friction>
              <ode>
                <mu>0.9</mu>
                <mu2>0.9</mu2>
              </ode>
              <torsional>
                <ode/>
              </torsional>
            </friction>
            <contact>
              <ode/>
            </contact>
            <bounce/>
          </surface>
          <max_contacts>10</max_contacts>
        </collision>
        <visual name='visual'>
          <geometry>
            <cylinder>
              <radius>0.165</radius>
              <length>0.13</length>
            </cylinder>
          </geometry>
          <material>
            <ambient>0 0 0 1</ambient>
            <diffuse>0 0 0 1</diffuse>
            <specular>0 0 0 1</specular>
            <emissive>0 0 0 1</emissive>
          </material>
        </visual>
        <self_collide>0</self_collide>
        <inertial>
          <pose frame=''>0 0 0 0 -0 0</pose>
          <inertia>
            <ixx>1</ixx>
            <ixy>0</ixy>
            <ixz>0</ixz>
            <iyy>1</iyy>
            <iyz>0</iyz>
            <izz>1</izz>
          </inertia>
          <mass>1</mass>
        </inertial>
        <enable_wind>0</enable_wind>
        <kinematic>0</kinematic>
      </link>
      <link name='yeti_body::left_back_wheel'>
        <pose frame=''>-0.233 0.315 0.165 -0 1.5707 1.5707</pose>
        <collision name='collision'>
          <geometry>
            <cylinder>
              <radius>0.165</radius>
              <length>0.13</length>
            </cylinder>
          </geometry>
          <surface>
            <friction>
              <ode>
                <mu>0.9</mu>
                <mu2>0.9</mu2>
              </ode>
              <torsional>
                <ode/>
              </torsional>
            </friction>
            <contact>
              <ode/>
            </contact>
            <bounce/>
          </surface>
          <max_contacts>10</max_contacts>
        </collision>
        <visual name='visual'>
          <geometry>
            <cylinder>
              <radius>0.165</radius>
              <length>0.13</length>
            </cylinder>
          </geometry>
          <material>
            <ambient>0 0 0 1</ambient>
            <diffuse>0 0 0 1</diffuse>
            <specular>0 0 0 1</specular>
            <emissive>0 0 0 1</emissive>
          </material>
        </visual>
        <self_collide>0</self_collide>
        <inertial>
          <pose frame=''>0 0 0 0 -0 0</pose>
          <inertia>
            <ixx>1</ixx>
            <ixy>0</ixy>
            <ixz>0</ixz>
            <iyy>1</iyy>
            <iyz>0</iyz>
            <izz>1</izz>
          </inertia>
          <mass>1</mass>
        </inertial>
        <enable_wind>0</enable_wind>
        <kinematic>0</kinematic>
      </link>
      <link name='yeti_body::right_back_wheel'>
        <pose frame=''>-0.233 -0.315 0.165 -0 1.5707 1.5707</pose>
        <collision name='collision'>
          <geometry>
            <cylinder>
              <radius>0.165</radius>
              <length>0.13</length>
            </cylinder>
          </geometry>
          <surface>
            <friction>
              <ode>
                <mu>0.9</mu>
                <mu2>0.9</mu2>
              </ode>
              <torsional>
                <ode/>
              </torsional>
            </friction>
            <contact>
              <ode/>
            </contact>
            <bounce/>
          </surface>
          <max_contacts>10</max_contacts>
        </collision>
        <visual name='visual'>
          <geometry>
            <cylinder>
              <radius>0.165</radius>
              <length>0.13</length>
            </cylinder>
          </geometry>
          <material>
            <ambient>0 0 0 1</ambient>
            <diffuse>0 0 0 1</diffuse>
            <specular>0 0 0 1</specular>
            <emissive>0 0 0 1</emissive>
          </material>
        </visual>
        <self_collide>0</self_collide>
        <inertial>
          <pose frame=''>0 0 0 0 -0 0</pose>
          <inertia>
            <ixx>1</ixx>
            <ixy>0</ixy>
            <ixz>0</ixz>
            <iyy>1</iyy>
            <iyz>0</iyz>
            <izz>1</izz>
          </inertia>
          <mass>1</mass>
        </inertial>
        <enable_wind>0</enable_wind>
        <kinematic>0</kinematic>
      </link>
      <link name='yeti_body::lidar'>
        <pose frame=''>0.33 0 0.75 0 -0 0</pose>
        <collision name='collision'>
          <geometry>
            <box>
              <size>0.05 0.05 0.05</size>
            </box>
          </geometry>
          <max_contacts>10</max_contacts>
          <surface>
            <contact>
              <ode/>
            </contact>
            <bounce/>
            <friction>
              <torsional>
                <ode/>
              </torsional>
              <ode/>
            </friction>
          </surface>
        </collision>
        <inertial>
          <mass>1</mass>
          <inertia>
            <ixx>1</ixx>
            <ixy>0</ixy>
            <ixz>0</ixz>
            <iyy>1</iyy>
            <iyz>0</iyz>
            <izz>1</izz>
          </inertia>
          <pose frame=''>0 0 0 0 -0 0</pose>
        </inertial>
        <sensor name='head_sick_sensor' type='gpu_ray'>
          <pose frame=''>0 0 0 0 -0 0</pose>
          <visualize>0</visualize>
          <update_rate>40</update_rate>
          <ray>
            <scan>
              <horizontal>
                <samples>720</samples>
                <resolution>1</resolution>
                <min_angle>-2.356</min_angle>
                <max_angle>2.356</max_angle>
              </horizontal>
            </scan>
            <range>
              <min>0.1</min>
              <max>30</max>
              <resolution>0.01</resolution>
            </range>
            <noise>
              <type>gaussian</type>
              <mean>0</mean>
              <stddev>0.001</stddev>
            </noise>
          </ray>
          <plugin name='gazebo_ros_head_sick_controller' filename='libgazebo_ros_gpu_laser.so'>
            <topicName>/scan</topicName>
            <frameName>sick_laser_link</frameName>
          </plugin>
        </sensor>
        <self_collide>0</self_collide>
        <enable_wind>0</enable_wind>
        <kinematic>0</kinematic>
      </link>
      <joint name='yeti_body::left_front_wheel_hinge' type='revolute'>
        <pose frame=''>0 0 -0.065 0 -0 0</pose>
        <child>yeti_body::left_front_wheel</child>
        <parent>yeti_body::chassis</parent>
        <axis>
          <xyz>0 1 0</xyz>
          <use_parent_model_frame>1</use_parent_model_frame>
          <limit>
            <lower>-1e+16</lower>
            <upper>1e+16</upper>
          </limit>
          <dynamics>
            <spring_reference>0</spring_reference>
            <spring_stiffness>0</spring_stiffness>
          </dynamics>
        </axis>
      </joint>
      <joint name='yeti_body::right_front_wheel_hinge' type='revolute'>
        <pose frame=''>0 0 0.065 0 -0 0</pose>
        <child>yeti_body::right_front_wheel</child>
        <parent>yeti_body::chassis</parent>
        <axis>
          <xyz>0 1 0</xyz>
          <use_parent_model_frame>1</use_parent_model_frame>
          <limit>
            <lower>-1e+16</lower>
            <upper>1e+16</upper>
          </limit>
          <dynamics>
            <spring_reference>0</spring_reference>
            <spring_stiffness>0</spring_stiffness>
          </dynamics>
        </axis>
      </joint>
      <joint name='yeti_body::left_back_wheel_hinge' type='revolute'>
        <pose frame=''>0 0 -0.065 0 -0 0</pose>
        <child>yeti_body::left_back_wheel</child>
        <parent>yeti_body::chassis</parent>
        <axis>
          <xyz>0 1 0</xyz>
          <use_parent_model_frame>1</use_parent_model_frame>
          <limit>
            <lower>-1e+16</lower>
            <upper>1e+16</upper>
          </limit>
          <dynamics>
            <spring_reference>0</spring_reference>
            <spring_stiffness>0</spring_stiffness>
          </dynamics>
        </axis>
      </joint>
      <joint name='yeti_body::right_back_wheel_hinge' type='revolute'>
        <pose frame=''>0 0 0.065 0 -0 0</pose>
        <child>yeti_body::right_back_wheel</child>
        <parent>yeti_body::chassis</parent>
        <axis>
          <xyz>0 1 0</xyz>
          <use_parent_model_frame>1</use_parent_model_frame>
          <limit>
            <lower>-1e+16</lower>
            <upper>1e+16</upper>
          </limit>
          <dynamics>
            <spring_reference>0</spring_reference>
            <spring_stiffness>0</spring_stiffness>
          </dynamics>
        </axis>
      </joint>
      <joint name='yeti_body::lidar_fixed' type='fixed'>
        <child>yeti_body::chassis</child>
        <parent>yeti_body::lidar</parent>
      </joint>
      <plugin name='skid_steer_drive_controller' filename='libgazebo_ros_skid_steer_drive.so'>
        <updateRate>100.0</updateRate>
        <robotNamespace>/yeti</robotNamespace>
        <leftFrontJoint>yeti_body::left_front_wheel_hinge</leftFrontJoint>
        <rightFrontJoint>yeti_body::right_front_wheel_hinge</rightFrontJoint>
        <leftRearJoint>yeti_body::left_back_wheel_hinge</leftRearJoint>
        <rightRearJoint>yeti_body::right_back_wheel_hinge</rightRearJoint>
        <wheelSeparation>0.495</wheelSeparation>
        <wheelDiameter>0.33</wheelDiameter>
        <robotBaseFrame>base_link</robotBaseFrame>
        <torque>60</torque>
        <topicName>cmd_vel</topicName>
        <broadcastTF>1</broadcastTF>
      </plugin>
      <link name='plow'>
        <inertial>
          <mass>27</mass>
          <pose frame=''>0 0 0 0 -0 0</pose>
          <inertia>
            <ixx>1</ixx>
            <ixy>0</ixy>
            <ixz>0</ixz>
            <iyy>1</iyy>
            <iyz>0</iyz>
            <izz>1</izz>
          </inertia>
        </inertial>
        <pose frame=''>0.9 0 0.003 0 -0 -3.14159</pose>
        <collision name='collision'>
          <geometry>
            <mesh>
              <uri>model://yeti_with_plow/meshes/45degplow.dae</uri>
            </mesh>
          </geometry>
          <max_contacts>10</max_contacts>
          <surface>
            <contact>
              <ode/>
            </contact>
            <bounce/>
            <friction>
              <torsional>
                <ode/>
              </torsional>
              <ode/>
            </friction>
          </surface>
        </collision>
        <visual name='visual'>
          <geometry>
            <mesh>
              <uri>model://yeti_with_plow/meshes/45degplow.dae</uri>
            </mesh>
          </geometry>
        </visual>
        <self_collide>0</self_collide>
        <enable_wind>0</enable_wind>
        <kinematic>0</kinematic>
      </link>
      <joint name='plow_connection' type='revolute'>
        <pose frame=''>0.4 0 0.05 0 -0 0</pose>
        <child>plow</child>
        <parent>yeti_body::chassis</parent>
        <axis>
          <xyz>0 1 0</xyz>
          <use_parent_model_frame>1</use_parent_model_frame>
          <limit>
            <lower>-1e+16</lower>
            <upper>1e+16</upper>
          </limit>
          <dynamics>
            <spring_reference>0</spring_reference>
            <spring_stiffness>0</spring_stiffness>
          </dynamics>
        </axis>
      </joint>
      <pose frame=''>5.5904 -6.11394 0 0 -0 0</pose>
    </model>
    <state world_name='default'>

      <iterations>41266</iterations>
      <model name='ground_plane'>
        <pose frame=''>0 0 0 0 -0 0</pose>
        <scale>1 1 1</scale>
        <link name='link'>
          <pose frame=''>0 0 0 0 -0 0</pose>
          <velocity>0 0 0 0 -0 0</velocity>
          <acceleration>0 0 0 0 -0 0</acceleration>
          <wrench>0 0 0 0 -0 0</wrench>
        </link>
      </model>
      <model name='new_terrain'>
        <pose frame=''>-0.013653 0.071648 0 0 -0 0</pose>
        <scale>1 1 1</scale>
        <link name='link'>
          <pose frame=''>-0.013653 0.071648 0 0 -0 0</pose>
          <velocity>0 0 0 0 -0 0</velocity>
          <acceleration>0 0 0 0 -0 0</acceleration>
          <wrench>0 0 0 0 -0 0</wrench>
        </link>
      </model>
      <model name='yeti_with_plow'>
        <pose frame=''>5.42565 -6.00062 0.074665 0.047102 -0.01323 -0.078719</pose>
        <scale>1 1 1</scale>
        <link name='plow'>
          <pose frame=''>6.31886 -6.06993 0.062344 -0.04717 -0.055036 3.0661</pose>
          <velocity>-0.000934 -0.000159 -0.008295 0.001189 0.006249 0.0011</velocity>
          <acceleration>-0.965805 -0.104457 -9.72251 -1.67454 -0.807132 -0.019675</acceleration>
          <wrench>-26.0767 -2.82033 -262.508 0 -0 0</wrench>
        </link>
        <link name='yeti_body::chassis'>
          <pose frame=''>5.41899 -6.01875 0.469192 0.047102 -0.01323 -0.078719</pose>
          <velocity>0.000316 -0.001593 -0.005076 0.000851 0.001062 0.001076</velocity>
          <acceleration>0.179792 0.024278 -9.62204 -1.37658 0.469735 0.580098</acceleration>
          <wrench>24.4517 3.30185 -1308.6 0 -0 0</wrench>
        </link>
        <link name='yeti_body::left_back_wheel'>
          <pose frame=''>5.21516 -5.67618 0.251215 -1.3266 1.37437 0.161504</pose>
          <velocity>0.000135 -0.001206 -0.00426 0.002948 0.000899 0.00113</velocity>
          <acceleration>0.772858 0.466739 -9.4018 -0.520477 0.018411 -2.6238</acceleration>
          <wrench>0.772858 0.466739 -9.4018 0 -0 0</wrench>
        </link>
        <link name='yeti_body::left_front_wheel'>
          <pose frame=''>5.67968 -5.71282 0.257403 -0.918224 1.49302 0.572926</pose>
          <velocity>-0.000651 -0.001552 -0.010612 0.001167 0.001041 0.001022</velocity>
          <acceleration>-0.549243 -0.835715 -21.5925 -0.672943 0.591335 0.498743</acceleration>
          <wrench>-0.549243 -0.835715 -21.5925 0 -0 0</wrench>
        </link>
        <link name='yeti_body::lidar'>
          <pose frame=''>5.74195 -6.06099 0.828133 0.047102 -0.013231 -0.078719</pose>
          <velocity>0.00088 -0.001552 -0.005481 0.000812 0.001428 0.001052</velocity>
          <acceleration>0.618557 0.717004 -9.73166 -1.54536 1.12783 0.504653</acceleration>
          <wrench>0.618557 0.717004 -9.73166 0 -0 0</wrench>
        </link>
        <link name='yeti_body::right_back_wheel'>
          <pose frame=''>5.16607 -6.30356 0.221584 -1.38618 1.31079 0.100376</pose>
          <velocity>-2.4e-05 -0.002416 -0.012748 0.002136 0.000961 0.001152</velocity>
          <acceleration>-0.398727 -1.63552 -24.922 -2.10251 -0.216235 -2.59677</acceleration>
          <wrench>-0.398727 -1.63552 -24.922 0 -0 0</wrench>
        </link>
        <link name='yeti_body::right_front_wheel'>
          <pose frame=''>5.63058 -6.3402 0.227719 -1.18194 1.44603 0.307947</pose>
          <velocity>0.000941 -0.00085 -0.005665 0.002892 0.000902 0.001131</velocity>
          <acceleration>1.18162 0.805979 -9.64731 -0.518553 0.14077 -2.59376</acceleration>
          <wrench>1.18162 0.805979 -9.64731 0 -0 0</wrench>
        </link>
      </model>
      <light name='sun'>
        <pose frame=''>0 0 10 0 -0 0</pose>
      </light>
    </state>
    <gui fullscreen='0'>
      <camera name='user_camera'>
        <pose frame=''>10.6294 -18.4301 6.90131 -0 0.447456 1.89619</pose>
        <view_controller>orbit</view_controller>
        <projection_type>perspective</projection_type>
      </camera>
    </gui>
  </world>
</sdf>
